01     CHB       2,010,120.45
01     CHN       2,453,320.45
01     RYG       1,789,321.67
01     TRA       2,090,111.12
01     PKN       2,312,423.44
01     SNK       1,901,222.33
02     CHB       3,222,210.55
02     CHN       3,120,489.55
02     RYG       2,689,123.10
02     TRA       3,000,999.99
02     PKN       2,910,444.44
02     SNK       2,211,111.11
03     CHB       3,110,120.45
03     CHN       2,553,321.45
03     RYG       2,889,311.67
03     TRA       3,190,121.12
03     PKN       3,312,413.44
03     SNK       2,011,232.33
04     CHB       3,123,123.45
04     CHN       2,555,320.50
04     RYG       2,999,321.65
04     TRA       2,690,111.15
04     PKN       3,412,423.49
04     SNK       2,501,222.33
05     CHB       4,222,210.55
05     CHN       3,220,489.56
05     RYG       3,689,123.17
05     TRA       3,500,999.98
05     PKN       3,910,444.47
05     SNK       3,311,111.19
06     CHB       4,110,120.48
06     CHN       3,653,321.49
06     RYG       3,489,311.67
06     TRA       3,990,121.14
06     PKN       3,512,413.45
06     SNK       3,011,232.36
07     CHB       4,210,223.49
07     CHN       3,700,432.89
07     RYG       3,689,567.81
07     TRA       3,899,999.92
07     PKN       3,111,222.29
07     SNK       4,001,234.59
08     CHB       3,023,123.42
08     CHN       2,455,320.52
08     RYG       2,799,321.62
08     TRA       2,490,111.12
08     PKN       2,412,423.43
08     SNK       2,301,222.32
09     CHB       3,322,210.53
09     CHN       3,020,489.54
09     RYG       2,589,123.11
09     TRA       3,300,999.91
09     PKN       2,810,444.41
09     SNK       2,411,111.10
10     CHB       3,210,120.44
10     CHN       2,853,321.46
10     RYG       2,389,311.63
10     TRA       3,190,121.13
10     PKN       2,912,413.44
10     SNK       2,611,232.34
11     CHB       4,010,223.47
11     CHN       3,800,432.88
11     RYG       3,579,567.79
11     TRA       3,799,999.90
11     PKN       3,011,222.27
11     SNK       3,901,234.57
12     CHB       4,110,223.45
12     CHN       3,900,432.89
12     RYG       3,789,567.89
12     TRA       3,999,999.99
12     PKN       2,111,222.22
12     SNK       4,001,234.56